{
    "modules": [],
    "properties": {
        "backendModules": [],
        "description": "A collection of useful TS libs.",
        "emConf": {
            "category": "plugin",
            "custom_category": "",
            "dependsOn": "typo3 => 9.5.0-0.0.0\n",
            "disableLocalization": false,
            "disableVersioning": false,
            "skipGenerateDocumentationTemplate": true,
            "sourceLanguage": "en",
            "state": "stable",
            "targetVersion": "9.5.0-9.5.99",
            "version": "9.5.0"
        },
        "extensionKey": "kitt3n_libs",
        "name": "kitt3n | Libs",
        "originalExtensionKey": "kitt3n_libs",
        "originalVendorName": "KITT3N",
        "persons": [
            {
                "company": "",
                "email": "o.merz@kitt3n.de",
                "name": "Oliver Merz",
                "role": "Developer"
            },
            {
                "company": "",
                "email": "g.kathan@kitt3n.de",
                "name": "Georg Kathan",
                "role": "Developer"
            },
            {
                "company": "",
                "email": "d.hilser@kitt3n.de",
                "name": "Dominik Hilser",
                "role": "Developer"
            }
        ],
        "plugins": [],
        "vendorName": "KITT3N"
    },
    "wires": [],
    "log": {
        "last_modified": "2018-10-12 01:19",
        "extension_builder_version": "9.10.0",
        "be_user": "ZWEI14 (1)"
    }
}